Capstone Quiz I
…
The median housing price is greater than the mean housing price.

21 houses do not have a basement.

4 houses are located on gravel streets.

# type your code for Question 7 here, and Knit
#count(ames_train, Year.Built)
ames_train %>%
  group_by(Year.Built) %>%
  summarise(n() / nrow(.))

## `summarise()` ungrouping output (override with `.groups` argument)

## # A tibble: 102 x 2
##    Year.Built `n()/nrow(.)`
##         <int>         <dbl>
##  1       1872         0.001
##  2       1880         0.003
##  3       1885         0.001
##  4       1890         0.003
##  5       1895         0.001
##  6       1900         0.011
##  7       1908         0.002
##  8       1910         0.011
##  9       1914         0.002
## 10       1915         0.006
## # ... with 92 more rows
…
1

2

3

# type your code for Question 12 here, and Knit
ames_train %>%
  filter(Bldg.Type == '1Fam') %>%
  select(Neighborhood) %>%
  group_by(Neighborhood) %>%
  count()

## # A tibble: 21 x 2
## # Groups:   Neighborhood [21]
##    Neighborhood     n
##    <fct>        <int>
##  1 Blmngtn          2
##  2 BrkSide         40
##  3 ClearCr         13
##  4 CollgCr         82
##  5 Crawfor         25
##  6 Edwards         48
##  7 Gilbert         48
##  8 IDOTRR          33
##  9 Mitchel         35
## 10 NAmes          143
## # ... with 11 more rows

ames_train %>%
  group_by(Neighborhood) %>%
  summarise(mean(Bldg.Type == "1Fam"))

## `summarise()` ungrouping output (override with `.groups` argument)

## # A tibble: 27 x 2
##    Neighborhood `mean(Bldg.Type == "1Fam")`
##    <fct>                              <dbl>
##  1 Blmngtn                            0.182
##  2 Blueste                            0    
##  3 BrDale                             0    
##  4 BrkSide                            0.976
##  5 ClearCr                            1    
##  6 CollgCr                            0.965
##  7 Crawfor                            0.862
##  8 Edwards                            0.8  
##  9 Gilbert                            0.980
## 10 Greens                             0    
## # ... with 17 more rows
…
